Module 3: R
…
---

# Filtering

Filtering allows us to select rows based on specific traits

```r
filter(ads_data, Duration__in_seconds_ < 100)
```

```
## # A tibble: 41 × 52
##    StartDate           EndDate             Status    
##    <dttm>              <dttm>              <dbl+lbl> 
##  1 2019-06-14 09:43:20 2019-06-14 09:44:30 0 [IP Add…
##  2 2019-06-14 09:43:29 2019-06-14 09:44:58 0 [IP Add…
##  3 2019-06-14 09:44:00 2019-06-14 09:45:11 0 [IP Add…
##  4 2019-06-14 09:43:32 2019-06-14 09:45:12 0 [IP Add…
##  5 2019-06-14 09:43:48 2019-06-14 09:45:25 0 [IP Add…
##  6 2019-06-14 09:44:24 2019-06-14 09:45:26 0 [IP Add…
##  7 2019-06-14 09:43:50 2019-06-14 09:45:29 0 [IP Add…
##  8 2019-06-14 09:44:15 2019-06-14 09:45:42 0 [IP Add…
##  9 2019-06-14 09:44:30 2019-06-14 09:45:58 0 [IP Add…
## 10 2019-06-14 09:44:36 2019-06-14 09:46:05 0 [IP Add…
## # … with 31 more rows, and 49 more variables:
## #   Progress <dbl>, Duration__in_seconds_ <dbl>,
## #   Finished <dbl+lbl>, RecordedDate <dttm>,
## #   ResponseId <chr>, DistributionChannel <chr>,
## #   UserLanguage <chr>, Consent <dbl+lbl>,
## #   Pol_7 <dbl+lbl>, W2_Knowledge <dbl+lbl>,
## #   Gender <dbl+lbl>, Race <dbl+lbl>, …
```

---

# Arranging

Arranging allows us to sort the order of the table by a certain column

```r
arrange(ads_data, Duration__in_seconds_)
```

```
## # A tibble: 1,460 × 52
##    StartDate           EndDate             Status    
##    <dttm>              <dttm>              <dbl+lbl> 
##  1 2019-06-14 09:58:11 2019-06-14 09:59:01 0 [IP Add…
##  2 2019-06-14 09:44:24 2019-06-14 09:45:26 0 [IP Add…
##  3 2019-06-14 09:43:20 2019-06-14 09:44:30 0 [IP Add…
##  4 2019-06-14 09:44:00 2019-06-14 09:45:11 0 [IP Add…
##  5 2019-06-14 09:52:10 2019-06-14 09:53:26 0 [IP Add…
##  6 2019-06-14 09:45:57 2019-06-14 09:47:13 0 [IP Add…
##  7 2019-06-14 09:50:37 2019-06-14 09:51:53 0 [IP Add…
##  8 2019-06-14 09:45:49 2019-06-14 09:47:08 0 [IP Add…
##  9 2019-06-14 10:10:25 2019-06-14 10:11:45 0 [IP Add…
## 10 2019-06-14 09:53:33 2019-06-14 09:54:54 0 [IP Add…
## # … with 1,450 more rows, and 49 more variables:
## #   Progress <dbl>, Duration__in_seconds_ <dbl>,
## #   Finished <dbl+lbl>, RecordedDate <dttm>,
## #   ResponseId <chr>, DistributionChannel <chr>,
## #   UserLanguage <chr>, Consent <dbl+lbl>,
## #   Pol_7 <dbl+lbl>, W2_Knowledge <dbl+lbl>,
## #   Gender <dbl+lbl>, Race <dbl+lbl>, …
```

---

# Selecting

Selecting allows us to pick certain columns

```r
select(ads_data, RecordedDate)
```

```
## # A tibble: 1,460 × 1
##    RecordedDate       
##    <dttm>             
##  1 2019-06-14 09:44:31
##  2 2019-06-14 09:44:58
##  3 2019-06-14 09:44:59
##  4 2019-06-14 09:45:00
##  5 2019-06-14 09:45:01
##  6 2019-06-14 09:45:12
##  7 2019-06-14 09:45:12
##  8 2019-06-14 09:45:13
##  9 2019-06-14 09:45:13
## 10 2019-06-14 09:45:16
## # … with 1,450 more rows
```

---
# Selecting

We can also remove columns

```r
select(ads_data, -Consent, -DistributionChannel)
```

```
## # A tibble: 1,460 × 50
##    StartDate           EndDate             Status    
##    <dttm>              <dttm>              <dbl+lbl> 
##  1 2019-06-14 09:43:20 2019-06-14 09:44:30 0 [IP Add…
##  2 2019-06-14 09:43:11 2019-06-14 09:44:57 0 [IP Add…
##  3 2019-06-14 09:43:29 2019-06-14 09:44:58 0 [IP Add…
##  4 2019-06-14 09:43:10 2019-06-14 09:45:00 0 [IP Add…
##  5 2019-06-14 09:43:11 2019-06-14 09:45:00 0 [IP Add…
##  6 2019-06-14 09:44:00 2019-06-14 09:45:11 0 [IP Add…
##  7 2019-06-14 09:43:32 2019-06-14 09:45:12 0 [IP Add…
##  8 2019-06-14 09:43:27 2019-06-14 09:45:12 0 [IP Add…
##  9 2019-06-14 09:43:08 2019-06-14 09:45:13 0 [IP Add…
## 10 2019-06-14 09:43:36 2019-06-14 09:45:16 0 [IP Add…
## # … with 1,450 more rows, and 47 more variables:
## #   Progress <dbl>, Duration__in_seconds_ <dbl>,
## #   Finished <dbl+lbl>, RecordedDate <dttm>,
## #   ResponseId <chr>, UserLanguage <chr>,
## #   Pol_7 <dbl+lbl>, W2_Knowledge <dbl+lbl>,
## #   Gender <dbl+lbl>, Race <dbl+lbl>,
## #   W1_Feeling_1 <dbl>, W1_Actions_1_1 <dbl+lbl>, …
```

---

# The pipe

So far, we have written our code like this:

```r
filter(ads_data, Duration__in_seconds_ < 100)
```

```
## # A tibble: 41 × 52
##    StartDate           EndDate             Status    
##    <dttm>              <dttm>              <dbl+lbl> 
##  1 2019-06-14 09:43:20 2019-06-14 09:44:30 0 [IP Add…
##  2 2019-06-14 09:43:29 2019-06-14 09:44:58 0 [IP Add…
##  3 2019-06-14 09:44:00 2019-06-14 09:45:11 0 [IP Add…
##  4 2019-06-14 09:43:32 2019-06-14 09:45:12 0 [IP Add…
##  5 2019-06-14 09:43:48 2019-06-14 09:45:25 0 [IP Add…
##  6 2019-06-14 09:44:24 2019-06-14 09:45:26 0 [IP Add…
##  7 2019-06-14 09:43:50 2019-06-14 09:45:29 0 [IP Add…
##  8 2019-06-14 09:44:15 2019-06-14 09:45:42 0 [IP Add…
##  9 2019-06-14 09:44:30 2019-06-14 09:45:58 0 [IP Add…
## 10 2019-06-14 09:44:36 2019-06-14 09:46:05 0 [IP Add…
## # … with 31 more rows, and 49 more variables:
## #   Progress <dbl>, Duration__in_seconds_ <dbl>,
## #   Finished <dbl+lbl>, RecordedDate <dttm>,
## #   ResponseId <chr>, DistributionChannel <chr>,
## #   UserLanguage <chr>, Consent <dbl+lbl>,
## #   Pol_7 <dbl+lbl>, W2_Knowledge <dbl+lbl>,
## #   Gender <dbl+lbl>, Race <dbl+lbl>, …
```
…
---
# The pipe

We can use the pipe `%>%`, which passes what we wrote on the previous line into the next function as the first argument:

```r
ads_data %>%
  filter(Duration__in_seconds_ < 100) %>%
  arrange(Duration__in_seconds_) %>%
  select(RecordedDate, Duration__in_seconds_)
```

```
## # A tibble: 41 × 2
##    RecordedDate        Duration__in_seconds_
##    <dttm>                              <dbl>
##  1 2019-06-14 09:59:02                    50
##  2 2019-06-14 09:45:26                    61
##  3 2019-06-14 09:44:31                    70
##  4 2019-06-14 09:45:12                    70
##  5 2019-06-14 09:53:26                    75
##  6 2019-06-14 09:47:13                    76
##  7 2019-06-14 09:51:54                    76
##  8 2019-06-14 09:47:08                    78
##  9 2019-06-14 10:11:46                    79
## 10 2019-06-14 09:54:54                    80
## # … with 31 more rows
```
…
---

# Mutating

Mutating can be used to create new columns or change existing columns.

```r
ads_data <- ads_data %>%
  mutate(Birthyear_add_day = str_c(Birthyear, "07-01")) %>%
  mutate(Birthyear_add_day = as_datetime(Birthyear_add_day))
```

```
## # A tibble: 1,460 × 3
##    EndDate             Birthyear Birthyear_add_day  
##    <dttm>                  <dbl> <dttm>             
##  1 2019-06-14 09:44:30      1993 1993-07-01 00:00:00
##  2 2019-06-14 09:44:57      1978 1978-07-01 00:00:00
##  3 2019-06-14 09:44:58      1993 1993-07-01 00:00:00
##  4 2019-06-14 09:45:00      1983 1983-07-01 00:00:00
##  5 2019-06-14 09:45:00      1990 1990-07-01 00:00:00
##  6 2019-06-14 09:45:11      1980 1980-07-01 00:00:00
##  7 2019-06-14 09:45:12      1996 1996-07-01 00:00:00
##  8 2019-06-14 09:45:12      1986 1986-07-01 00:00:00
##  9 2019-06-14 09:45:13      2000 2000-07-01 00:00:00
## 10 2019-06-14 09:45:16      1988 1988-07-01 00:00:00
## # … with 1,450 more rows
```

---
# Mutating

```r
ads_data %>%
  mutate(age = EndDate - Birthyear_add_day) 
```

```
## # A tibble: 1,460 × 4
##    EndDate             Birthyear Birthyear_add_day  
##    <dttm>                  <dbl> <dttm>             
##  1 2019-06-14 09:44:30      1993 1993-07-01 00:00:00
##  2 2019-06-14 09:44:57      1978 1978-07-01 00:00:00
##  3 2019-06-14 09:44:58      1993 1993-07-01 00:00:00
##  4 2019-06-14 09:45:00      1983 1983-07-01 00:00:00
##  5 2019-06-14 09:45:00      1990 1990-07-01 00:00:00
##  6 2019-06-14 09:45:11      1980 1980-07-01 00:00:00
##  7 2019-06-14 09:45:12      1996 1996-07-01 00:00:00
##  8 2019-06-14 09:45:12      1986 1986-07-01 00:00:00
##  9 2019-06-14 09:45:13      2000 2000-07-01 00:00:00
## 10 2019-06-14 09:45:16      1988 1988-07-01 00:00:00
## # … with 1,450 more rows, and 1 more variable:
## #   age <drtn>
```
…
# Manipulation application: Summarising data

---
# Summarising data

First we can select only data for Ontario using `filter()`:

```r
CES_data %>%
  filter(cps19_province == "Ontario")
```

```
## # A tibble: 14,160 × 620
##    cps19_StartDate     cps19_EndDate       cps19_Re…¹
##    <dttm>              <dttm>              <chr>     
##  1 2019-09-13 10:01:19 2019-09-13 10:27:29 R_USWDAPc…
##  2 2019-09-13 10:05:37 2019-09-13 10:50:53 R_3IQaeDX…
##  3 2019-09-13 10:05:52 2019-09-13 10:32:53 R_27WeMQ1…
##  4 2019-09-13 10:10:20 2019-09-13 10:29:45 R_3LiGZcC…
##  5 2019-09-13 10:14:47 2019-09-13 10:32:32 R_1Iu8R1U…
##  6 2019-09-13 10:15:39 2019-09-13 10:30:59 R_2EcS26h…
##  7 2019-09-13 10:15:48 2019-09-13 10:37:45 R_3yrt44w…
##  8 2019-09-13 10:16:08 2019-09-13 10:40:14 R_10OBmXJ…
##  9 2019-09-13 10:16:24 2019-09-13 10:41:24 R_2e5nvu0…
## 10 2019-09-13 10:17:06 2019-09-13 10:35:47 R_2OJdv16…
## # … with 14,150 more rows, 617 more variables:
## #   cps19_consent <dbl>, cps19_citizenship <dbl>,
## #   cps19_yob <dbl>, cps19_yob_2001_age <dbl>,
## #   cps19_gender <fct>, cps19_province <fct>,
## #   cps19_education <dbl>, cps19_demsat <dbl>,
## #   cps19_imp_iss <chr>, cps19_imp_iss_party <dbl>,
## #   cps19_imp_iss_party_7_TEXT <chr>, …
```
…
We don't need to be dealing with all the columns. We can specifically select the ones we want using `select()`:

"How satisfied are you with the performance of your provincial government under ${e://Field/premier}?", "In provincial politics, do you usually think of yourself as a:", and income.

```r
CES_data %>%
  filter(cps19_province == "Ontario") %>%
  select(cps19_prov_gov_sat,
         cps19_prov_id,
         cps19_income_number)
```

```
## # A tibble: 14,160 × 3
##    cps19_prov_gov_sat   cps19_prov_id         cps19…¹
##    <fct>                <fct>                   <dbl>
##  1 Not very satisfied   Liberal                    NA
##  2 Fairly satisfied     Progressive Conserva…      NA
##  3 Fairly satisfied     Liberal                 56000
##  4 Not at all satisfied NDP                        NA
##  5 Not at all satisfied NDP                         0
##  6 Not at all satisfied None                       NA
##  7 Not at all satisfied NDP                        NA
##  8 Not very satisfied   Liberal                    NA
##  9 Not very satisfied   NDP                        NA
## 10 Not at all satisfied Liberal                    NA
## # … with 14,150 more rows, and abbreviated variable
## #   name ¹​cps19_income_number
```
…
---
# Grouping

```
## # A tibble: 14,160 × 3
##    cps19_prov_gov_sat   cps19_prov_id         cps19…¹
##    <fct>                <fct>                   <dbl>
##  1 Not very satisfied   Liberal                    NA
##  2 Fairly satisfied     Progressive Conserva…      NA
##  3 Fairly satisfied     Liberal                 56000
##  4 Not at all satisfied NDP                        NA
##  5 Not at all satisfied NDP                         0
##  6 Not at all satisfied None                       NA
##  7 Not at all satisfied NDP                        NA
##  8 Not very satisfied   Liberal                    NA
##  9 Not very satisfied   NDP                        NA
## 10 Not at all satisfied Liberal                    NA
## # … with 14,150 more rows, and abbreviated variable
## #   name ¹​cps19_income_number
```
…
```
## # A tibble: 35 × 3
## # Groups:   cps19_prov_gov_sat [5]
##    cps19_prov_gov_sat   cps19_prov_id         media…¹
##    <fct>                <fct>                   <dbl>
##  1 Not at all satisfied Liberal                 80000
##  2 Not at all satisfied Progressive Conserva…   85000
##  3 Not at all satisfied NDP                     65000
##  4 Not at all satisfied Green                   60000
##  5 Not at all satisfied Another party           40000
##  6 Not at all satisfied None                    62000
##  7 Not at all satisfied Don't know/prefer no…   68500
##  8 Not very satisfied   Liberal                 80000
##  9 Not very satisfied   Progressive Conserva…   78000
## 10 Not very satisfied   NDP                     65000
## # … with 25 more rows, and abbreviated variable name
## #   ¹​median_income
```
…
