Module 3: R
…
---

# Filtering

Filtering allows us to select rows based on specific traits

```r
filter(ads_data, Duration__in_seconds_ < 100)
```

```
## # A tibble: 41 × 52
##    StartDate           EndDate                  Status Progress Duration__in_se…
##    <dttm>              <dttm>                <dbl+lbl>    <dbl>            <dbl>
##  1 2019-06-14 09:43:20 2019-06-14 09:44:30 0 [IP Addr…      100               70
##  2 2019-06-14 09:43:29 2019-06-14 09:44:58 0 [IP Addr…      100               88
##  3 2019-06-14 09:44:00 2019-06-14 09:45:11 0 [IP Addr…      100               70
##  4 2019-06-14 09:43:32 2019-06-14 09:45:12 0 [IP Addr…      100               99
##  5 2019-06-14 09:43:48 2019-06-14 09:45:25 0 [IP Addr…      100               96
##  6 2019-06-14 09:44:24 2019-06-14 09:45:26 0 [IP Addr…      100               61
##  7 2019-06-14 09:43:50 2019-06-14 09:45:29 0 [IP Addr…      100               98
##  8 2019-06-14 09:44:15 2019-06-14 09:45:42 0 [IP Addr…      100               86
##  9 2019-06-14 09:44:30 2019-06-14 09:45:58 0 [IP Addr…      100               88
## 10 2019-06-14 09:44:36 2019-06-14 09:46:05 0 [IP Addr…      100               88
## # … with 31 more rows, and 47 more variables: Finished <dbl+lbl>,
## #   RecordedDate <dttm>, ResponseId <chr>, DistributionChannel <chr>,
## #   UserLanguage <chr>, Consent <dbl+lbl>, Pol_7 <dbl+lbl>,
## #   W2_Knowledge <dbl+lbl>, Gender <dbl+lbl>, Race <dbl+lbl>,
## #   W1_Feeling_1 <dbl>, W1_Actions_1_1 <dbl+lbl>, W1_Actions_1_2 <dbl+lbl>,
## #   W1_Actions_1_3 <dbl+lbl>, W1_Actions_1_4 <dbl+lbl>,
## #   W1_Actions_1_5 <dbl+lbl>, W1_Actions_1_6 <dbl+lbl>, …
```

---

# Arranging

Arranging allows us to sort the order of the table by a certain column

```r
arrange(ads_data, Duration__in_seconds_)
```

```
## # A tibble: 1,460 × 52
##    StartDate           EndDate                  Status Progress Duration__in_se…
##    <dttm>              <dttm>                <dbl+lbl>    <dbl>            <dbl>
##  1 2019-06-14 09:58:11 2019-06-14 09:59:01 0 [IP Addr…      100               50
##  2 2019-06-14 09:44:24 2019-06-14 09:45:26 0 [IP Addr…      100               61
##  3 2019-06-14 09:43:20 2019-06-14 09:44:30 0 [IP Addr…      100               70
##  4 2019-06-14 09:44:00 2019-06-14 09:45:11 0 [IP Addr…      100               70
##  5 2019-06-14 09:52:10 2019-06-14 09:53:26 0 [IP Addr…      100               75
##  6 2019-06-14 09:45:57 2019-06-14 09:47:13 0 [IP Addr…      100               76
##  7 2019-06-14 09:50:37 2019-06-14 09:51:53 0 [IP Addr…      100               76
##  8 2019-06-14 09:45:49 2019-06-14 09:47:08 0 [IP Addr…      100               78
##  9 2019-06-14 10:10:25 2019-06-14 10:11:45 0 [IP Addr…      100               79
## 10 2019-06-14 09:53:33 2019-06-14 09:54:54 0 [IP Addr…      100               80
## # … with 1,450 more rows, and 47 more variables: Finished <dbl+lbl>,
## #   RecordedDate <dttm>, ResponseId <chr>, DistributionChannel <chr>,
## #   UserLanguage <chr>, Consent <dbl+lbl>, Pol_7 <dbl+lbl>,
## #   W2_Knowledge <dbl+lbl>, Gender <dbl+lbl>, Race <dbl+lbl>,
## #   W1_Feeling_1 <dbl>, W1_Actions_1_1 <dbl+lbl>, W1_Actions_1_2 <dbl+lbl>,
## #   W1_Actions_1_3 <dbl+lbl>, W1_Actions_1_4 <dbl+lbl>,
## #   W1_Actions_1_5 <dbl+lbl>, W1_Actions_1_6 <dbl+lbl>, …
```

---

# Selecting

Selecting allows us to pick certain columns

```r
select(ads_data, RecordedDate)
```

```
## # A tibble: 1,460 × 1
##    RecordedDate       
##    <dttm>             
##  1 2019-06-14 09:44:31
##  2 2019-06-14 09:44:58
##  3 2019-06-14 09:44:59
##  4 2019-06-14 09:45:00
##  5 2019-06-14 09:45:01
##  6 2019-06-14 09:45:12
##  7 2019-06-14 09:45:12
##  8 2019-06-14 09:45:13
##  9 2019-06-14 09:45:13
## 10 2019-06-14 09:45:16
## # … with 1,450 more rows
```

---

We can also remove columns

```r
select(ads_data, -Consent, -DistributionChannel)
```

```
## # A tibble: 1,460 × 50
##    StartDate           EndDate                  Status Progress Duration__in_se…
##    <dttm>              <dttm>                <dbl+lbl>    <dbl>            <dbl>
##  1 2019-06-14 09:43:20 2019-06-14 09:44:30 0 [IP Addr…      100               70
##  2 2019-06-14 09:43:11 2019-06-14 09:44:57 0 [IP Addr…      100              105
##  3 2019-06-14 09:43:29 2019-06-14 09:44:58 0 [IP Addr…      100               88
##  4 2019-06-14 09:43:10 2019-06-14 09:45:00 0 [IP Addr…      100              109
##  5 2019-06-14 09:43:11 2019-06-14 09:45:00 0 [IP Addr…      100              109
##  6 2019-06-14 09:44:00 2019-06-14 09:45:11 0 [IP Addr…      100               70
##  7 2019-06-14 09:43:32 2019-06-14 09:45:12 0 [IP Addr…      100               99
##  8 2019-06-14 09:43:27 2019-06-14 09:45:12 0 [IP Addr…      100              105
##  9 2019-06-14 09:43:08 2019-06-14 09:45:13 0 [IP Addr…      100              124
## 10 2019-06-14 09:43:36 2019-06-14 09:45:16 0 [IP Addr…      100              100
## # … with 1,450 more rows, and 45 more variables: Finished <dbl+lbl>,
## #   RecordedDate <dttm>, ResponseId <chr>, UserLanguage <chr>, Pol_7 <dbl+lbl>,
## #   W2_Knowledge <dbl+lbl>, Gender <dbl+lbl>, Race <dbl+lbl>,
## #   W1_Feeling_1 <dbl>, W1_Actions_1_1 <dbl+lbl>, W1_Actions_1_2 <dbl+lbl>,
## #   W1_Actions_1_3 <dbl+lbl>, W1_Actions_1_4 <dbl+lbl>,
## #   W1_Actions_1_5 <dbl+lbl>, W1_Actions_1_6 <dbl+lbl>,
## #   W1_Actions_1_7 <dbl+lbl>, W1_Actions_1_8 <dbl+lbl>, …
```

---

# The pipe

So far, we have written our code like this:

```r
filter(ads_data, Duration__in_seconds_ < 100)
```

```
## # A tibble: 41 × 52
##    StartDate           EndDate                  Status Progress Duration__in_se…
##    <dttm>              <dttm>                <dbl+lbl>    <dbl>            <dbl>
##  1 2019-06-14 09:43:20 2019-06-14 09:44:30 0 [IP Addr…      100               70
##  2 2019-06-14 09:43:29 2019-06-14 09:44:58 0 [IP Addr…      100               88
##  3 2019-06-14 09:44:00 2019-06-14 09:45:11 0 [IP Addr…      100               70
##  4 2019-06-14 09:43:32 2019-06-14 09:45:12 0 [IP Addr…      100               99
##  5 2019-06-14 09:43:48 2019-06-14 09:45:25 0 [IP Addr…      100               96
##  6 2019-06-14 09:44:24 2019-06-14 09:45:26 0 [IP Addr…      100               61
##  7 2019-06-14 09:43:50 2019-06-14 09:45:29 0 [IP Addr…      100               98
##  8 2019-06-14 09:44:15 2019-06-14 09:45:42 0 [IP Addr…      100               86
##  9 2019-06-14 09:44:30 2019-06-14 09:45:58 0 [IP Addr…      100               88
## 10 2019-06-14 09:44:36 2019-06-14 09:46:05 0 [IP Addr…      100               88
## # … with 31 more rows, and 47 more variables: Finished <dbl+lbl>,
## #   RecordedDate <dttm>, ResponseId <chr>, DistributionChannel <chr>,
## #   UserLanguage <chr>, Consent <dbl+lbl>, Pol_7 <dbl+lbl>,
## #   W2_Knowledge <dbl+lbl>, Gender <dbl+lbl>, Race <dbl+lbl>,
## #   W1_Feeling_1 <dbl>, W1_Actions_1_1 <dbl+lbl>, W1_Actions_1_2 <dbl+lbl>,
## #   W1_Actions_1_3 <dbl+lbl>, W1_Actions_1_4 <dbl+lbl>,
## #   W1_Actions_1_5 <dbl+lbl>, W1_Actions_1_6 <dbl+lbl>, …
```
But what if we want to perform multiple operations in one go? 

---

We can use the pipe `%>%`, which passes what we wrote on the previous line into the next function as the first argument:

```r
ads_data %>%
  filter(Duration__in_seconds_ < 100) %>%
  arrange(Duration__in_seconds_) %>%
  select(RecordedDate, Duration__in_seconds_)
```

```
## # A tibble: 41 × 2
##    RecordedDate        Duration__in_seconds_
##    <dttm>                              <dbl>
##  1 2019-06-14 09:59:02                    50
##  2 2019-06-14 09:45:26                    61
##  3 2019-06-14 09:44:31                    70
##  4 2019-06-14 09:45:12                    70
##  5 2019-06-14 09:53:26                    75
##  6 2019-06-14 09:47:13                    76
##  7 2019-06-14 09:51:54                    76
##  8 2019-06-14 09:47:08                    78
##  9 2019-06-14 10:11:46                    79
## 10 2019-06-14 09:54:54                    80
## # … with 31 more rows
```
…
---

# Mutating

Mutating can be used to create new columns or change existing columns.

```r
ads_data <- ads_data %>%
  mutate(Birthyear_add_day = str_c(Birthyear, "07-01")) %>%
  mutate(Birthyear_add_day = as_datetime(Birthyear_add_day))
```

```
## # A tibble: 1,460 × 3
##    EndDate             Birthyear Birthyear_add_day  
##    <dttm>                  <dbl> <dttm>             
##  1 2019-06-14 09:44:30      1993 1993-07-01 00:00:00
##  2 2019-06-14 09:44:57      1978 1978-07-01 00:00:00
##  3 2019-06-14 09:44:58      1993 1993-07-01 00:00:00
##  4 2019-06-14 09:45:00      1983 1983-07-01 00:00:00
##  5 2019-06-14 09:45:00      1990 1990-07-01 00:00:00
##  6 2019-06-14 09:45:11      1980 1980-07-01 00:00:00
##  7 2019-06-14 09:45:12      1996 1996-07-01 00:00:00
##  8 2019-06-14 09:45:12      1986 1986-07-01 00:00:00
##  9 2019-06-14 09:45:13      2000 2000-07-01 00:00:00
## 10 2019-06-14 09:45:16      1988 1988-07-01 00:00:00
## # … with 1,450 more rows
```

---

```r
ads_data %>%
  mutate(age = EndDate - Birthyear_add_day) 
```

```
## # A tibble: 1,460 × 4
##    EndDate             Birthyear Birthyear_add_day   age           
##    <dttm>                  <dbl> <dttm>              <drtn>        
##  1 2019-06-14 09:44:30      1993 1993-07-01 00:00:00  9479.406 days
##  2 2019-06-14 09:44:57      1978 1978-07-01 00:00:00 14958.406 days
##  3 2019-06-14 09:44:58      1993 1993-07-01 00:00:00  9479.406 days
##  4 2019-06-14 09:45:00      1983 1983-07-01 00:00:00 13132.406 days
##  5 2019-06-14 09:45:00      1990 1990-07-01 00:00:00 10575.406 days
##  6 2019-06-14 09:45:11      1980 1980-07-01 00:00:00 14227.406 days
##  7 2019-06-14 09:45:12      1996 1996-07-01 00:00:00  8383.406 days
##  8 2019-06-14 09:45:12      1986 1986-07-01 00:00:00 12036.406 days
##  9 2019-06-14 09:45:13      2000 2000-07-01 00:00:00  6922.406 days
## 10 2019-06-14 09:45:16      1988 1988-07-01 00:00:00 11305.406 days
## # … with 1,450 more rows
```
…
class: inverse, center, middle

# Manipulation application: Summarising data

---

First we can select only data for Ontario using `filter()`:

```r
CES_data %>%
  filter(cps19_province == "Ontario")
```

```
## # A tibble: 14,160 × 620
##    cps19_StartDate     cps19_EndDate       cps19_ResponseId  cps19_consent
##    <dttm>              <dttm>              <chr>                     <dbl>
##  1 2019-09-13 10:01:19 2019-09-13 10:27:29 R_USWDAPcQEQiMmNb             1
##  2 2019-09-13 10:05:37 2019-09-13 10:50:53 R_3IQaeDXy0tBzEry             1
##  3 2019-09-13 10:05:52 2019-09-13 10:32:53 R_27WeMQ1asip2cMD             1
##  4 2019-09-13 10:10:20 2019-09-13 10:29:45 R_3LiGZcCWJEcWV4P             1
##  5 2019-09-13 10:14:47 2019-09-13 10:32:32 R_1Iu8R1UlYzVMycz             1
##  6 2019-09-13 10:15:39 2019-09-13 10:30:59 R_2EcS26hqrcVYlab             1
##  7 2019-09-13 10:15:48 2019-09-13 10:37:45 R_3yrt44wqQ1d4VRn             1
##  8 2019-09-13 10:16:08 2019-09-13 10:40:14 R_10OBmXJyvn8feYQ             1
##  9 2019-09-13 10:16:24 2019-09-13 10:41:24 R_2e5nvu0UchQctgq             1
## 10 2019-09-13 10:17:06 2019-09-13 10:35:47 R_2OJdv16hkRGnjOn             1
## # … with 14,150 more rows, and 616 more variables: cps19_citizenship <dbl>,
## #   cps19_yob <dbl>, cps19_yob_2001_age <dbl>, cps19_gender <fct>,
## #   cps19_province <fct>, cps19_education <dbl>, cps19_demsat <dbl>,
## #   cps19_imp_iss <chr>, cps19_imp_iss_party <dbl>,
## #   cps19_imp_iss_party_7_TEXT <chr>, cps19_imp_loc_iss <chr>,
## #   cps19_imp_loc_iss_p <dbl>, cps19_imp_loc_iss_p_7_TEXT <chr>,
## #   cps19_interest_gen_1 <dbl>, cps19_interest_elxn_1 <dbl>, …
```
…
We don't need to be dealing with all the columns. We can specifically select the ones we want using `select()`:

"How satisfied are you with the performance of your provincial government under ${e://Field/premier}?", "In provincial politics, do you usually think of yourself as a:", and income.

```r
CES_data %>%
  filter(cps19_province == "Ontario") %>%
  select(cps19_prov_gov_sat,
         cps19_prov_id,
         cps19_income_number)
```

```
## # A tibble: 14,160 × 3
##    cps19_prov_gov_sat   cps19_prov_id            cps19_income_number
##    <fct>                <fct>                                  <dbl>
##  1 Not very satisfied   Liberal                                   NA
##  2 Fairly satisfied     Progressive Conservative                  NA
##  3 Fairly satisfied     Liberal                                56000
##  4 Not at all satisfied NDP                                       NA
##  5 Not at all satisfied NDP                                        0
##  6 Not at all satisfied None                                      NA
##  7 Not at all satisfied NDP                                       NA
##  8 Not very satisfied   Liberal                                   NA
##  9 Not very satisfied   NDP                                       NA
## 10 Not at all satisfied Liberal                                   NA
## # … with 14,150 more rows
```
…
---

```
## # A tibble: 14,160 × 3
##    cps19_prov_gov_sat   cps19_prov_id            cps19_income_number
##    <fct>                <fct>                                  <dbl>
##  1 Not very satisfied   Liberal                                   NA
##  2 Fairly satisfied     Progressive Conservative                  NA
##  3 Fairly satisfied     Liberal                                56000
##  4 Not at all satisfied NDP                                       NA
##  5 Not at all satisfied NDP                                        0
##  6 Not at all satisfied None                                      NA
##  7 Not at all satisfied NDP                                       NA
##  8 Not very satisfied   Liberal                                   NA
##  9 Not very satisfied   NDP                                       NA
## 10 Not at all satisfied Liberal                                   NA
## # … with 14,150 more rows
```
…
```
## # A tibble: 35 × 3
## # Groups:   cps19_prov_gov_sat [5]
##    cps19_prov_gov_sat   cps19_prov_id                   median_income
##    <fct>                <fct>                                   <dbl>
##  1 Not at all satisfied Liberal                                 80000
##  2 Not at all satisfied Progressive Conservative                85000
##  3 Not at all satisfied NDP                                     65000
##  4 Not at all satisfied Green                                   60000
##  5 Not at all satisfied Another party                           40000
##  6 Not at all satisfied None                                    62000
##  7 Not at all satisfied Don't know/prefer not to answer         68500
##  8 Not very satisfied   Liberal                                 80000
##  9 Not very satisfied   Progressive Conservative                78000
## 10 Not very satisfied   NDP                                     65000
## # … with 25 more rows
```
…
