Module 3: R
…
RStudio makes it easier to do more with R

---

class: inverse, center, middle

# What can you do with R?

---

## Load data 

```
## # A tibble: 9,113 × 5
##    YEAR_BUILT YEAR_EVALUATED LONGITUDE LATITUDE SCORE
##         <dbl>          <dbl>     <dbl>    <dbl> <dbl>
##  1       1950           2021     -79.5     43.7    64
##  2       1960           2021     -79.5     43.7    60
##  3       1969           2021     -79.4     43.7    64
##  4       1960           2021     -79.5     43.7    91
##  5       1973           2021     -79.5     43.7    91
##  6       1960           2021     -79.3     43.7    88
##  7       1962           2021     -79.5     43.6    84
##  8       1993           2021     -79.4     43.7    83
##  9       1995           2021     -79.3     43.7    89
## 10       1964           2021     -79.3     43.7    74
## # … with 9,103 more rows
```

---

## Clean data

```
## # A tibble: 9,113 × 5
##    year_built year_evaluated longitude latitude score
##         <dbl>          <dbl>     <dbl>    <dbl> <dbl>
##  1       1950           2021     -79.5     43.7    64
##  2       1960           2021     -79.5     43.7    60
##  3       1969           2021     -79.4     43.7    64
##  4       1960           2021     -79.5     43.7    91
##  5       1973           2021     -79.5     43.7    91
##  6       1960           2021     -79.3     43.7    88
##  7       1962           2021     -79.5     43.6    84
##  8       1993           2021     -79.4     43.7    83
##  9       1995           2021     -79.3     43.7    89
## 10       1964           2021     -79.3     43.7    74
## # … with 9,103 more rows
```

---

## Manipulate and combine data

```
## # A tibble: 8,291 × 6
##    year_built property_type confirmed_units score  year count
##         <dbl> <chr>                   <dbl> <dbl> <dbl> <int>
##  1       1960 PRIVATE                    12    73  2020     3
##  2       1960 PRIVATE                    12    81  2020     3
##  3       1962 PRIVATE                    10    73  2020     9
##  4       1968 PRIVATE                   174    81  2020    48
##  5       1965 PRIVATE                    27    73  2020     9
##  6       1950 PRIVATE                    10    77  2020     9
##  7       1974 TCHC                      350    82  2020    36
##  8       1928 PRIVATE                    15    73  2020    19
##  9       1938 PRIVATE                    32    74  2020    16
## 10       1958 PRIVATE                    55    72  2020    36
## # … with 8,281 more rows
```
…
